{
    "swagger": "2.0",
    "info": {
        "contact": {}
    },
    "paths": {
        "/config": {
            "get": {
                "description": "shows config of the project only on the development phase",
                "consumes": [
                    "application/json"
                ],
                "produces": [
                    "application/json"
                ],
                "tags": [
                    "config"
                ],
                "summary": "gets project config",
                "operationId": "get-config",
                "parameters": [
                    {
                        "type": "string",
                        "description": "name",
                        "name": "name",
                        "in": "query",
                        "required": true
                    }
                ],
                "responses": {
                    "200": {
                        "description": "desc",
                        "schema": {
                            "allOf": [
                                {
                                    "$ref": "#/definitions/models.ResponseModel"
                                },
                                {
                                    "type": "object",
                                    "properties": {
                                        "data": {
                                            "$ref": "#/definitions/config.Config"
                                        }
                                    }
                                }
                            ]
                        }
                    },
                    "400": {
                        "description": "Bad Request",
                        "schema": {
                            "allOf": [
                                {
                                    "$ref": "#/definitions/models.ResponseModel"
                                },
                                {
                                    "type": "object",
                                    "properties": {
                                        "error": {
                                            "type": "string"
                                        }
                                    }
                                }
                            ]
                        }
                    },
                    "500": {
                        "description": "Server Error",
                        "schema": {
                            "allOf": [
                                {
                                    "$ref": "#/definitions/models.ResponseModel"
                                },
                                {
                                    "type": "object",
                                    "properties": {
                                        "error": {
                                            "type": "string"
                                        }
                                    }
                                }
                            ]
                        }
                    }
                }
            }
        },
        "/v1/attribute": {
            "get": {
                "description": "Get All Attribute",
                "consumes": [
                    "application/json"
                ],
                "produces": [
                    "application/json"
                ],
                "tags": [
                    "attribute"
                ],
                "summary": "get all attribute",
                "operationId": "get-all-attribute",
                "parameters": [
                    {
                        "type": "string",
                        "description": "name",
                        "name": "name",
                        "in": "query"
                    },
                    {
                        "type": "string",
                        "description": "limit",
                        "name": "limit",
                        "in": "query"
                    },
                    {
                        "type": "string",
                        "description": "offset",
                        "name": "offset",
                        "in": "query"
                    }
                ],
                "responses": {
                    "200": {
                        "description": "desc",
                        "schema": {
                            "allOf": [
                                {
                                    "$ref": "#/definitions/models.ResponseModel"
                                },
                                {
                                    "type": "object",
                                    "properties": {
                                        "data": {
                                            "$ref": "#/definitions/models.GetAllAttributeResponse"
                                        }
                                    }
                                }
                            ]
                        }
                    },
                    "400": {
                        "description": "Bad Request",
                        "schema": {
                            "allOf": [
                                {
                                    "$ref": "#/definitions/models.ResponseModel"
                                },
                                {
                                    "type": "object",
                                    "properties": {
                                        "error": {
                                            "type": "string"
                                        }
                                    }
                                }
                            ]
                        }
                    },
                    "500": {
                        "description": "Server Error",
                        "schema": {
                            "allOf": [
                                {
                                    "$ref": "#/definitions/models.ResponseModel"
                                },
                                {
                                    "type": "object",
                                    "properties": {
                                        "error": {
                                            "type": "string"
                                        }
                                    }
                                }
                            ]
                        }
                    }
                }
            },
            "post": {
                "description": "Create Profession",
                "consumes": [
                    "application/json"
                ],
                "produces": [
                    "application/json"
                ],
                "tags": [
                    "attribute"
                ],
                "summary": "Create Attribute",
                "operationId": "attribute_proession",
                "parameters": [
                    {
                        "description": "attribute",
                        "name": "attribute",
                        "in": "body",
                        "required": true,
                        "schema": {
                            "$ref": "#/definitions/models.CreateAttributeModel"
                        }
                    }
                ],
                "responses": {
                    "200": {
                        "description": "desc",
                        "schema": {
                            "allOf": [
                                {
                                    "$ref": "#/definitions/models.ResponseModel"
                                },
                                {
                                    "type": "object",
                                    "properties": {
                                        "data": {
                                            "type": "string"
                                        }
                                    }
                                }
                            ]
                        }
                    },
                    "400": {
                        "description": "Bad Request",
                        "schema": {
                            "allOf": [
                                {
                                    "$ref": "#/definitions/models.ResponseModel"
                                },
                                {
                                    "type": "object",
                                    "properties": {
                                        "error": {
                                            "type": "string"
                                        }
                                    }
                                }
                            ]
                        }
                    },
                    "500": {
                        "description": "Server Error",
                        "schema": {
                            "allOf": [
                                {
                                    "$ref": "#/definitions/models.ResponseModel"
                                },
                                {
                                    "type": "object",
                                    "properties": {
                                        "error": {
                                            "type": "string"
                                        }
                                    }
                                }
                            ]
                        }
                    }
                }
            }
        },
        "/v1/attribute/{attribute_id}": {
            "get": {
                "description": "Get Attribute",
                "consumes": [
                    "application/json"
                ],
                "produces": [
                    "application/json"
                ],
                "tags": [
                    "attribute"
                ],
                "summary": "get attribute",
                "operationId": "get-attribute",
                "parameters": [
                    {
                        "type": "string",
                        "description": "attribute_id",
                        "name": "attribute_id",
                        "in": "path",
                        "required": true
                    }
                ],
                "responses": {
                    "200": {
                        "description": "desc",
                        "schema": {
                            "allOf": [
                                {
                                    "$ref": "#/definitions/models.ResponseModel"
                                },
                                {
                                    "type": "object",
                                    "properties": {
                                        "data": {
                                            "$ref": "#/definitions/models.Attribute"
                                        }
                                    }
                                }
                            ]
                        }
                    },
                    "400": {
                        "description": "Bad Request",
                        "schema": {
                            "allOf": [
                                {
                                    "$ref": "#/definitions/models.ResponseModel"
                                },
                                {
                                    "type": "object",
                                    "properties": {
                                        "error": {
                                            "type": "string"
                                        }
                                    }
                                }
                            ]
                        }
                    },
                    "500": {
                        "description": "Server Error",
                        "schema": {
                            "allOf": [
                                {
                                    "$ref": "#/definitions/models.ResponseModel"
                                },
                                {
                                    "type": "object",
                                    "properties": {
                                        "error": {
                                            "type": "string"
                                        }
                                    }
                                }
                            ]
                        }
                    }
                }
            },
            "put": {
                "description": "Update Attribute",
                "consumes": [
                    "application/json"
                ],
                "produces": [
                    "application/json"
                ],
                "tags": [
                    "attribute"
                ],
                "summary": "update attribute",
                "operationId": "update-attribute",
                "parameters": [
                    {
                        "type": "string",
                        "description": "attribute_id",
                        "name": "attribute_id",
                        "in": "path",
                        "required": true
                    },
                    {
                        "description": "attribute",
                        "name": "profession",
                        "in": "body",
                        "required": true,
                        "schema": {
                            "$ref": "#/definitions/models.CreateAttributeModel"
                        }
                    }
                ],
                "responses": {
                    "200": {
                        "description": "desc",
                        "schema": {
                            "allOf": [
                                {
                                    "$ref": "#/definitions/models.ResponseModel"
                                },
                                {
                                    "type": "object",
                                    "properties": {
                                        "data": {
                                            "$ref": "#/definitions/models.Attribute"
                                        }
                                    }
                                }
                            ]
                        }
                    },
                    "400": {
                        "description": "Bad Request",
                        "schema": {
                            "allOf": [
                                {
                                    "$ref": "#/definitions/models.ResponseModel"
                                },
                                {
                                    "type": "object",
                                    "properties": {
                                        "error": {
                                            "type": "string"
                                        }
                                    }
                                }
                            ]
                        }
                    },
                    "500": {
                        "description": "Server Error",
                        "schema": {
                            "allOf": [
                                {
                                    "$ref": "#/definitions/models.ResponseModel"
                                },
                                {
                                    "type": "object",
                                    "properties": {
                                        "error": {
                                            "type": "string"
                                        }
                                    }
                                }
                            ]
                        }
                    }
                }
            },
            "delete": {
                "description": "Delete Attribute",
                "consumes": [
                    "application/json"
                ],
                "produces": [
                    "application/json"
                ],
                "tags": [
                    "attribute"
                ],
                "summary": "delete attribute",
                "operationId": "delete-attribute",
                "parameters": [
                    {
                        "type": "string",
                        "description": "attribute_id",
                        "name": "attribute_id",
                        "in": "path",
                        "required": true
                    }
                ],
                "responses": {
                    "200": {
                        "description": "desc",
                        "schema": {
                            "allOf": [
                                {
                                    "$ref": "#/definitions/models.ResponseModel"
                                },
                                {
                                    "type": "object",
                                    "properties": {
                                        "data": {
                                            "type": "string"
                                        }
                                    }
                                }
                            ]
                        }
                    },
                    "400": {
                        "description": "Bad Request",
                        "schema": {
                            "allOf": [
                                {
                                    "$ref": "#/definitions/models.ResponseModel"
                                },
                                {
                                    "type": "object",
                                    "properties": {
                                        "error": {
                                            "type": "string"
                                        }
                                    }
                                }
                            ]
                        }
                    },
                    "500": {
                        "description": "Server Error",
                        "schema": {
                            "allOf": [
                                {
                                    "$ref": "#/definitions/models.ResponseModel"
                                },
                                {
                                    "type": "object",
                                    "properties": {
                                        "error": {
                                            "type": "string"
                                        }
                                    }
                                }
                            ]
                        }
                    }
                }
            }
        },
        "/v1/company": {
            "get": {
                "description": "Get All Company",
                "consumes": [
                    "application/json"
                ],
                "produces": [
                    "application/json"
                ],
                "tags": [
                    "company"
                ],
                "summary": "get all company",
                "operationId": "get-all-company",
                "parameters": [
                    {
                        "type": "string",
                        "description": "name",
                        "name": "name",
                        "in": "query"
                    },
                    {
                        "type": "string",
                        "description": "limit",
                        "name": "limit",
                        "in": "query"
                    },
                    {
                        "type": "string",
                        "description": "offset",
                        "name": "offset",
                        "in": "query"
                    }
                ],
                "responses": {
                    "200": {
                        "description": "desc",
                        "schema": {
                            "allOf": [
                                {
                                    "$ref": "#/definitions/models.ResponseModel"
                                },
                                {
                                    "type": "object",
                                    "properties": {
                                        "data": {
                                            "$ref": "#/definitions/models.GetAllCompanyResponse"
                                        }
                                    }
                                }
                            ]
                        }
                    },
                    "400": {
                        "description": "Bad Request",
                        "schema": {
                            "allOf": [
                                {
                                    "$ref": "#/definitions/models.ResponseModel"
                                },
                                {
                                    "type": "object",
                                    "properties": {
                                        "error": {
                                            "type": "string"
                                        }
                                    }
                                }
                            ]
                        }
                    },
                    "500": {
                        "description": "Server Error",
                        "schema": {
                            "allOf": [
                                {
                                    "$ref": "#/definitions/models.ResponseModel"
                                },
                                {
                                    "type": "object",
                                    "properties": {
                                        "error": {
                                            "type": "string"
                                        }
                                    }
                                }
                            ]
                        }
                    }
                }
            },
            "post": {
                "description": "Create Company",
                "consumes": [
                    "application/json"
                ],
                "produces": [
                    "application/json"
                ],
                "tags": [
                    "company"
                ],
                "summary": "Create Company",
                "operationId": "create_company",
                "parameters": [
                    {
                        "description": "company",
                        "name": "company",
                        "in": "body",
                        "required": true,
                        "schema": {
                            "$ref": "#/definitions/models.CreateCompanyModel"
                        }
                    }
                ],
                "responses": {
                    "200": {
                        "description": "desc",
                        "schema": {
                            "allOf": [
                                {
                                    "$ref": "#/definitions/models.ResponseModel"
                                },
                                {
                                    "type": "object",
                                    "properties": {
                                        "data": {
                                            "type": "string"
                                        }
                                    }
                                }
                            ]
                        }
                    },
                    "400": {
                        "description": "Bad Request",
                        "schema": {
                            "allOf": [
                                {
                                    "$ref": "#/definitions/models.ResponseModel"
                                },
                                {
                                    "type": "object",
                                    "properties": {
                                        "error": {
                                            "type": "string"
                                        }
                                    }
                                }
                            ]
                        }
                    },
                    "500": {
                        "description": "Server Error",
                        "schema": {
                            "allOf": [
                                {
                                    "$ref": "#/definitions/models.ResponseModel"
                                },
                                {
                                    "type": "object",
                                    "properties": {
                                        "error": {
                                            "type": "string"
                                        }
                                    }
                                }
                            ]
                        }
                    }
                }
            }
        },
        "/v1/company/{company_id}": {
            "get": {
                "description": "Get Company",
                "consumes": [
                    "application/json"
                ],
                "produces": [
                    "application/json"
                ],
                "tags": [
                    "company"
                ],
                "summary": "get company",
                "operationId": "get-company",
                "parameters": [
                    {
                        "type": "string",
                        "description": "company_id",
                        "name": "company_id",
                        "in": "path",
                        "required": true
                    }
                ],
                "responses": {
                    "200": {
                        "description": "desc",
                        "schema": {
                            "allOf": [
                                {
                                    "$ref": "#/definitions/models.ResponseModel"
                                },
                                {
                                    "type": "object",
                                    "properties": {
                                        "data": {
                                            "$ref": "#/definitions/models.Company"
                                        }
                                    }
                                }
                            ]
                        }
                    },
                    "400": {
                        "description": "Bad Request",
                        "schema": {
                            "allOf": [
                                {
                                    "$ref": "#/definitions/models.ResponseModel"
                                },
                                {
                                    "type": "object",
                                    "properties": {
                                        "error": {
                                            "type": "string"
                                        }
                                    }
                                }
                            ]
                        }
                    },
                    "500": {
                        "description": "Server Error",
                        "schema": {
                            "allOf": [
                                {
                                    "$ref": "#/definitions/models.ResponseModel"
                                },
                                {
                                    "type": "object",
                                    "properties": {
                                        "error": {
                                            "type": "string"
                                        }
                                    }
                                }
                            ]
                        }
                    }
                }
            },
            "put": {
                "description": "Update Company",
                "consumes": [
                    "application/json"
                ],
                "produces": [
                    "application/json"
                ],
                "tags": [
                    "company"
                ],
                "summary": "update company",
                "operationId": "update-company",
                "parameters": [
                    {
                        "type": "string",
                        "description": "company_id",
                        "name": "company_id",
                        "in": "path",
                        "required": true
                    },
                    {
                        "description": "company",
                        "name": "company",
                        "in": "body",
                        "required": true,
                        "schema": {
                            "$ref": "#/definitions/models.CreateCompanyModel"
                        }
                    }
                ],
                "responses": {
                    "200": {
                        "description": "desc",
                        "schema": {
                            "allOf": [
                                {
                                    "$ref": "#/definitions/models.ResponseModel"
                                },
                                {
                                    "type": "object",
                                    "properties": {
                                        "data": {
                                            "$ref": "#/definitions/models.Company"
                                        }
                                    }
                                }
                            ]
                        }
                    },
                    "400": {
                        "description": "Bad Request",
                        "schema": {
                            "allOf": [
                                {
                                    "$ref": "#/definitions/models.ResponseModel"
                                },
                                {
                                    "type": "object",
                                    "properties": {
                                        "error": {
                                            "type": "string"
                                        }
                                    }
                                }
                            ]
                        }
                    },
                    "500": {
                        "description": "Server Error",
                        "schema": {
                            "allOf": [
                                {
                                    "$ref": "#/definitions/models.ResponseModel"
                                },
                                {
                                    "type": "object",
                                    "properties": {
                                        "error": {
                                            "type": "string"
                                        }
                                    }
                                }
                            ]
                        }
                    }
                }
            },
            "delete": {
                "description": "Delete Company",
                "consumes": [
                    "application/json"
                ],
                "produces": [
                    "application/json"
                ],
                "tags": [
                    "company"
                ],
                "summary": "delete company",
                "operationId": "delete-company",
                "parameters": [
                    {
                        "type": "string",
                        "description": "company_id",
                        "name": "company_id",
                        "in": "path",
                        "required": true
                    }
                ],
                "responses": {
                    "200": {
                        "description": "desc",
                        "schema": {
                            "allOf": [
                                {
                                    "$ref": "#/definitions/models.ResponseModel"
                                },
                                {
                                    "type": "object",
                                    "properties": {
                                        "data": {
                                            "type": "string"
                                        }
                                    }
                                }
                            ]
                        }
                    },
                    "400": {
                        "description": "Bad Request",
                        "schema": {
                            "allOf": [
                                {
                                    "$ref": "#/definitions/models.ResponseModel"
                                },
                                {
                                    "type": "object",
                                    "properties": {
                                        "error": {
                                            "type": "string"
                                        }
                                    }
                                }
                            ]
                        }
                    },
                    "500": {
                        "description": "Server Error",
                        "schema": {
                            "allOf": [
                                {
                                    "$ref": "#/definitions/models.ResponseModel"
                                },
                                {
                                    "type": "object",
                                    "properties": {
                                        "error": {
                                            "type": "string"
                                        }
                                    }
                                }
                            ]
                        }
                    }
                }
            }
        },
        "/v1/ping": {
            "get": {
                "description": "this returns \"pong\" messsage to show service is working",
                "consumes": [
                    "application/json"
                ],
                "produces": [
                    "application/json"
                ],
                "tags": [
                    "config"
                ],
                "summary": "returns \"pong\" message",
                "operationId": "ping",
                "responses": {
                    "200": {
                        "description": "desc",
                        "schema": {
                            "allOf": [
                                {
                                    "$ref": "#/definitions/models.ResponseModel"
                                },
                                {
                                    "type": "object",
                                    "properties": {
                                        "data": {
                                            "type": "string"
                                        }
                                    }
                                }
                            ]
                        }
                    },
                    "500": {
                        "description": "Internal Server Error",
                        "schema": {
                            "allOf": [
                                {
                                    "$ref": "#/definitions/models.ResponseModel"
                                },
                                {
                                    "type": "object",
                                    "properties": {
                                        "error": {
                                            "type": "string"
                                        }
                                    }
                                }
                            ]
                        }
                    }
                }
            }
        },
        "/v1/position": {
            "get": {
                "description": "Get All Position",
                "consumes": [
                    "application/json"
                ],
                "produces": [
                    "application/json"
                ],
                "tags": [
                    "position"
                ],
                "summary": "get all position",
                "operationId": "get-all-position",
                "parameters": [
                    {
                        "type": "string",
                        "description": "name",
                        "name": "name",
                        "in": "query"
                    },
                    {
                        "type": "string",
                        "description": "limit",
                        "name": "limit",
                        "in": "query"
                    },
                    {
                        "type": "string",
                        "description": "offset",
                        "name": "offset",
                        "in": "query"
                    },
                    {
                        "type": "string",
                        "description": "profession_id",
                        "name": "profession_id",
                        "in": "query"
                    },
                    {
                        "type": "string",
                        "description": "company_id",
                        "name": "company_id",
                        "in": "query"
                    }
                ],
                "responses": {
                    "200": {
                        "description": "desc",
                        "schema": {
                            "allOf": [
                                {
                                    "$ref": "#/definitions/models.ResponseModel"
                                },
                                {
                                    "type": "object",
                                    "properties": {
                                        "data": {
                                            "$ref": "#/definitions/models.GetAllPositionResponse"
                                        }
                                    }
                                }
                            ]
                        }
                    },
                    "400": {
                        "description": "Bad Request",
                        "schema": {
                            "allOf": [
                                {
                                    "$ref": "#/definitions/models.ResponseModel"
                                },
                                {
                                    "type": "object",
                                    "properties": {
                                        "error": {
                                            "type": "string"
                                        }
                                    }
                                }
                            ]
                        }
                    },
                    "500": {
                        "description": "Server Error",
                        "schema": {
                            "allOf": [
                                {
                                    "$ref": "#/definitions/models.ResponseModel"
                                },
                                {
                                    "type": "object",
                                    "properties": {
                                        "error": {
                                            "type": "string"
                                        }
                                    }
                                }
                            ]
                        }
                    }
                }
            },
            "post": {
                "description": "Create Position",
                "consumes": [
                    "application/json"
                ],
                "produces": [
                    "application/json"
                ],
                "tags": [
                    "position"
                ],
                "summary": "Create Position",
                "operationId": "create_position",
                "parameters": [
                    {
                        "description": "position",
                        "name": "position",
                        "in": "body",
                        "required": true,
                        "schema": {
                            "$ref": "#/definitions/models.CreatePositionModel"
                        }
                    }
                ],
                "responses": {
                    "200": {
                        "description": "desc",
                        "schema": {
                            "allOf": [
                                {
                                    "$ref": "#/definitions/models.ResponseModel"
                                },
                                {
                                    "type": "object",
                                    "properties": {
                                        "data": {
                                            "type": "string"
                                        }
                                    }
                                }
                            ]
                        }
                    },
                    "400": {
                        "description": "Bad Request",
                        "schema": {
                            "allOf": [
                                {
                                    "$ref": "#/definitions/models.ResponseModel"
                                },
                                {
                                    "type": "object",
                                    "properties": {
                                        "error": {
                                            "type": "string"
                                        }
                                    }
                                }
                            ]
                        }
                    },
                    "500": {
                        "description": "Server Error",
                        "schema": {
                            "allOf": [
                                {
                                    "$ref": "#/definitions/models.ResponseModel"
                                },
                                {
                                    "type": "object",
                                    "properties": {
                                        "error": {
                                            "type": "string"
                                        }
                                    }
                                }
                            ]
                        }
                    }
                }
            }
        },
        "/v1/position/{position_id}": {
            "get": {
                "description": "Get Position",
                "consumes": [
                    "application/json"
                ],
                "produces": [
                    "application/json"
                ],
                "tags": [
                    "position"
                ],
                "summary": "get position",
                "operationId": "get-position",
                "parameters": [
                    {
                        "type": "string",
                        "description": "position_id",
                        "name": "position_id",
                        "in": "path",
                        "required": true
                    }
                ],
                "responses": {
                    "200": {
                        "description": "desc",
                        "schema": {
                            "allOf": [
                                {
                                    "$ref": "#/definitions/models.ResponseModel"
                                },
                                {
                                    "type": "object",
                                    "properties": {
                                        "data": {
                                            "$ref": "#/definitions/models.Position"
                                        }
                                    }
                                }
                            ]
                        }
                    },
                    "400": {
                        "description": "Bad Request",
                        "schema": {
                            "allOf": [
                                {
                                    "$ref": "#/definitions/models.ResponseModel"
                                },
                                {
                                    "type": "object",
                                    "properties": {
                                        "error": {
                                            "type": "string"
                                        }
                                    }
                                }
                            ]
                        }
                    },
                    "500": {
                        "description": "Server Error",
                        "schema": {
                            "allOf": [
                                {
                                    "$ref": "#/definitions/models.ResponseModel"
                                },
                                {
                                    "type": "object",
                                    "properties": {
                                        "error": {
                                            "type": "string"
                                        }
                                    }
                                }
                            ]
                        }
                    }
                }
            },
            "put": {
                "description": "Update Position",
                "consumes": [
                    "application/json"
                ],
                "produces": [
                    "application/json"
                ],
                "tags": [
                    "position"
                ],
                "summary": "update position",
                "operationId": "update-position",
                "parameters": [
                    {
                        "type": "string",
                        "description": "position_id",
                        "name": "position_id",
                        "in": "path",
                        "required": true
                    },
                    {
                        "description": "position",
                        "name": "position",
                        "in": "body",
                        "required": true,
                        "schema": {
                            "$ref": "#/definitions/models.CreatePositionModel"
                        }
                    }
                ],
                "responses": {
                    "200": {
                        "description": "desc",
                        "schema": {
                            "allOf": [
                                {
                                    "$ref": "#/definitions/models.ResponseModel"
                                },
                                {
                                    "type": "object",
                                    "properties": {
                                        "data": {
                                            "$ref": "#/definitions/models.Position"
                                        }
                                    }
                                }
                            ]
                        }
                    },
                    "400": {
                        "description": "Bad Request",
                        "schema": {
                            "allOf": [
                                {
                                    "$ref": "#/definitions/models.ResponseModel"
                                },
                                {
                                    "type": "object",
                                    "properties": {
                                        "error": {
                                            "type": "string"
                                        }
                                    }
                                }
                            ]
                        }
                    },
                    "500": {
                        "description": "Server Error",
                        "schema": {
                            "allOf": [
                                {
                                    "$ref": "#/definitions/models.ResponseModel"
                                },
                                {
                                    "type": "object",
                                    "properties": {
                                        "error": {
                                            "type": "string"
                                        }
                                    }
                                }
                            ]
                        }
                    }
                }
            },
            "delete": {
                "description": "Delete Position",
                "consumes": [
                    "application/json"
                ],
                "produces": [
                    "application/json"
                ],
                "tags": [
                    "position"
                ],
                "summary": "delete position",
                "operationId": "delete-position",
                "parameters": [
                    {
                        "type": "string",
                        "description": "position_id",
                        "name": "position_id",
                        "in": "path",
                        "required": true
                    }
                ],
                "responses": {
                    "200": {
                        "description": "desc",
                        "schema": {
                            "allOf": [
                                {
                                    "$ref": "#/definitions/models.ResponseModel"
                                },
                                {
                                    "type": "object",
                                    "properties": {
                                        "data": {
                                            "type": "string"
                                        }
                                    }
                                }
                            ]
                        }
                    },
                    "400": {
                        "description": "Bad Request",
                        "schema": {
                            "allOf": [
                                {
                                    "$ref": "#/definitions/models.ResponseModel"
                                },
                                {
                                    "type": "object",
                                    "properties": {
                                        "error": {
                                            "type": "string"
                                        }
                                    }
                                }
                            ]
                        }
                    },
                    "500": {
                        "description": "Server Error",
                        "schema": {
                            "allOf": [
                                {
                                    "$ref": "#/definitions/models.ResponseModel"
                                },
                                {
                                    "type": "object",
                                    "properties": {
                                        "error": {
                                            "type": "string"
                                        }
                                    }
                                }
                            ]
                        }
                    }
                }
            }
        },
        "/v1/profession": {
            "get": {
                "description": "Get All Profession",
                "consumes": [
                    "application/json"
                ],
                "produces": [
                    "application/json"
                ],
                "tags": [
                    "profession"
                ],
                "summary": "get all profession",
                "operationId": "get-all-profession",
                "parameters": [
                    {
                        "type": "string",
                        "description": "name",
                        "name": "name",
                        "in": "query"
                    },
                    {
                        "type": "string",
                        "description": "limit",
                        "name": "limit",
                        "in": "query"
                    },
                    {
                        "type": "string",
                        "description": "offset",
                        "name": "offset",
                        "in": "query"
                    }
                ],
                "responses": {
                    "200": {
                        "description": "desc",
                        "schema": {
                            "allOf": [
                                {
                                    "$ref": "#/definitions/models.ResponseModel"
                                },
                                {
                                    "type": "object",
                                    "properties": {
                                        "data": {
                                            "$ref": "#/definitions/models.GetAllProfessionResponse"
                                        }
                                    }
                                }
                            ]
                        }
                    },
                    "400": {
                        "description": "Bad Request",
                        "schema": {
                            "allOf": [
                                {
                                    "$ref": "#/definitions/models.ResponseModel"
                                },
                                {
                                    "type": "object",
                                    "properties": {
                                        "error": {
                                            "type": "string"
                                        }
                                    }
                                }
                            ]
                        }
                    },
                    "500": {
                        "description": "Server Error",
                        "schema": {
                            "allOf": [
                                {
                                    "$ref": "#/definitions/models.ResponseModel"
                                },
                                {
                                    "type": "object",
                                    "properties": {
                                        "error": {
                                            "type": "string"
                                        }
                                    }
                                }
                            ]
                        }
                    }
                }
            },
            "post": {
                "description": "Create Profession",
                "consumes": [
                    "application/json"
                ],
                "produces": [
                    "application/json"
                ],
                "tags": [
                    "profession"
                ],
                "summary": "Create Profession",
                "operationId": "create_proession",
                "parameters": [
                    {
                        "description": "profession",
                        "name": "profession",
                        "in": "body",
                        "required": true,
                        "schema": {
                            "$ref": "#/definitions/models.CreateProfessionModel"
                        }
                    }
                ],
                "responses": {
                    "200": {
                        "description": "desc",
                        "schema": {
                            "allOf": [
                                {
                                    "$ref": "#/definitions/models.ResponseModel"
                                },
                                {
                                    "type": "object",
                                    "properties": {
                                        "data": {
                                            "type": "string"
                                        }
                                    }
                                }
                            ]
                        }
                    },
                    "400": {
                        "description": "Bad Request",
                        "schema": {
                            "allOf": [
                                {
                                    "$ref": "#/definitions/models.ResponseModel"
                                },
                                {
                                    "type": "object",
                                    "properties": {
                                        "error": {
                                            "type": "string"
                                        }
                                    }
                                }
                            ]
                        }
                    },
                    "500": {
                        "description": "Server Error",
                        "schema": {
                            "allOf": [
                                {
                                    "$ref": "#/definitions/models.ResponseModel"
                                },
                                {
                                    "type": "object",
                                    "properties": {
                                        "error": {
                                            "type": "string"
                                        }
                                    }
                                }
                            ]
                        }
                    }
                }
            }
        },
        "/v1/profession/{profession_id}": {
            "get": {
                "description": "Get Profession",
                "consumes": [
                    "application/json"
                ],
                "produces": [
                    "application/json"
                ],
                "tags": [
                    "profession"
                ],
                "summary": "get profession",
                "operationId": "get-profession",
                "parameters": [
                    {
                        "type": "string",
                        "description": "profession_id",
                        "name": "profession_id",
                        "in": "path",
                        "required": true
                    }
                ],
                "responses": {
                    "200": {
                        "description": "desc",
                        "schema": {
                            "allOf": [
                                {
                                    "$ref": "#/definitions/models.ResponseModel"
                                },
                                {
                                    "type": "object",
                                    "properties": {
                                        "data": {
                                            "$ref": "#/definitions/models.Profession"
                                        }
                                    }
                                }
                            ]
                        }
                    },
                    "400": {
                        "description": "Bad Request",
                        "schema": {
                            "allOf": [
                                {
                                    "$ref": "#/definitions/models.ResponseModel"
                                },
                                {
                                    "type": "object",
                                    "properties": {
                                        "error": {
                                            "type": "string"
                                        }
                                    }
                                }
                            ]
                        }
                    },
                    "500": {
                        "description": "Server Error",
                        "schema": {
                            "allOf": [
                                {
                                    "$ref": "#/definitions/models.ResponseModel"
                                },
                                {
                                    "type": "object",
                                    "properties": {
                                        "error": {
                                            "type": "string"
                                        }
                                    }
                                }
                            ]
                        }
                    }
                }
            },
            "put": {
                "description": "Update Profession",
                "consumes": [
                    "application/json"
                ],
                "produces": [
                    "application/json"
                ],
                "tags": [
                    "profession"
                ],
                "summary": "update profession",
                "operationId": "update-profession",
                "parameters": [
                    {
                        "type": "string",
                        "description": "profession_id",
                        "name": "profession_id",
                        "in": "path",
                        "required": true
                    },
                    {
                        "description": "profession",
                        "name": "profession",
                        "in": "body",
                        "required": true,
                        "schema": {
                            "$ref": "#/definitions/models.CreateProfessionModel"
                        }
                    }
                ],
                "responses": {
                    "200": {
                        "description": "desc",
                        "schema": {
                            "allOf": [
                                {
                                    "$ref": "#/definitions/models.ResponseModel"
                                },
                                {
                                    "type": "object",
                                    "properties": {
                                        "data": {
                                            "$ref": "#/definitions/models.Profession"
                                        }
                                    }
                                }
                            ]
                        }
                    },
                    "400": {
                        "description": "Bad Request",
                        "schema": {
                            "allOf": [
                                {
                                    "$ref": "#/definitions/models.ResponseModel"
                                },
                                {
                                    "type": "object",
                                    "properties": {
                                        "error": {
                                            "type": "string"
                                        }
                                    }
                                }
                            ]
                        }
                    },
                    "500": {
                        "description": "Server Error",
                        "schema": {
                            "allOf": [
                                {
                                    "$ref": "#/definitions/models.ResponseModel"
                                },
                                {
                                    "type": "object",
                                    "properties": {
                                        "error": {
                                            "type": "string"
                                        }
                                    }
                                }
                            ]
                        }
                    }
                }
            },
            "delete": {
                "description": "Delete Profession",
                "consumes": [
                    "application/json"
                ],
                "produces": [
                    "application/json"
                ],
                "tags": [
                    "profession"
                ],
                "summary": "delete profession",
                "operationId": "delete-profession",
                "parameters": [
                    {
                        "type": "string",
                        "description": "profession_id",
                        "name": "profession_id",
                        "in": "path",
                        "required": true
                    }
                ],
                "responses": {
                    "200": {
                        "description": "desc",
                        "schema": {
                            "allOf": [
                                {
                                    "$ref": "#/definitions/models.ResponseModel"
                                },
                                {
                                    "type": "object",
                                    "properties": {
                                        "data": {
                                            "type": "string"
                                        }
                                    }
                                }
                            ]
                        }
                    },
                    "400": {
                        "description": "Bad Request",
                        "schema": {
                            "allOf": [
                                {
                                    "$ref": "#/definitions/models.ResponseModel"
                                },
                                {
                                    "type": "object",
                                    "properties": {
                                        "error": {
                                            "type": "string"
                                        }
                                    }
                                }
                            ]
                        }
                    },
                    "500": {
                        "description": "Server Error",
                        "schema": {
                            "allOf": [
                                {
                                    "$ref": "#/definitions/models.ResponseModel"
                                },
                                {
                                    "type": "object",
                                    "properties": {
                                        "error": {
                                            "type": "string"
                                        }
                                    }
                                }
                            ]
                        }
                    }
                }
            }
        }
    },
    "definitions": {
        "config.Config": {
            "type": "object",
            "properties": {
                "companyServiceHost": {
                    "type": "string"
                },
                "companyServicePort": {
                    "type": "integer"
                },
                "environment": {
                    "description": "develop, staging, production",
                    "type": "string"
                },
                "httpPort": {
                    "type": "string"
                },
                "logLevel": {
                    "type": "string"
                },
                "minioAccessKeyID": {
                    "type": "string"
                },
                "minioBucketName": {
                    "type": "string"
                },
                "minioEndpoint": {
                    "type": "string"
                },
                "minioHost": {
                    "type": "string"
                },
                "minioLocation": {
                    "type": "string"
                },
                "minioSecretKey": {
                    "type": "string"
                },
                "positionServiceHost": {
                    "type": "string"
                },
                "positionServicePort": {
                    "type": "integer"
                }
            }
        },
        "models.Attribute": {
            "type": "object",
            "properties": {
                "attribute_type": {
                    "type": "string"
                },
                "id": {
                    "type": "string"
                },
                "name": {
                    "type": "string"
                }
            }
        },
        "models.Company": {
            "type": "object",
            "properties": {
                "id": {
                    "type": "string"
                },
                "name": {
                    "type": "string"
                }
            }
        },
        "models.CreateAttributeModel": {
            "type": "object",
            "required": [
                "attribute_type",
                "name"
            ],
            "properties": {
                "attribute_type": {
                    "type": "string"
                },
                "name": {
                    "type": "string"
                }
            }
        },
        "models.CreateCompanyModel": {
            "type": "object",
            "required": [
                "name"
            ],
            "properties": {
                "name": {
                    "type": "string"
                }
            }
        },
        "models.CreatePositionModel": {
            "type": "object",
            "required": [
                "company_id",
                "name",
                "profession_id"
            ],
            "properties": {
                "company_id": {
                    "type": "string"
                },
                "name": {
                    "type": "string"
                },
                "position_attributes": {
                    "type": "array",
                    "items": {
                        "$ref": "#/definitions/models.PositionAttribute"
                    }
                },
                "profession_id": {
                    "type": "string"
                }
            }
        },
        "models.CreateProfessionModel": {
            "type": "object",
            "required": [
                "name"
            ],
            "properties": {
                "name": {
                    "type": "string"
                }
            }
        },
        "models.GetAllAttributeResponse": {
            "type": "object",
            "properties": {
                "attributes": {
                    "type": "array",
                    "items": {
                        "$ref": "#/definitions/models.Attribute"
                    }
                },
                "count": {
                    "type": "integer"
                }
            }
        },
        "models.GetAllCompanyResponse": {
            "type": "object",
            "properties": {
                "count": {
                    "type": "integer"
                },
                "professions": {
                    "type": "array",
                    "items": {
                        "$ref": "#/definitions/models.Profession"
                    }
                }
            }
        },
        "models.GetAllPositionResponse": {
            "type": "object",
            "properties": {
                "count": {
                    "type": "integer"
                },
                "positions": {
                    "type": "array",
                    "items": {
                        "$ref": "#/definitions/models.Position"
                    }
                }
            }
        },
        "models.GetAllProfessionResponse": {
            "type": "object",
            "properties": {
                "count": {
                    "type": "integer"
                },
                "professions": {
                    "type": "array",
                    "items": {
                        "$ref": "#/definitions/models.Profession"
                    }
                }
            }
        },
        "models.GetPositionAttribute": {
            "type": "object",
            "required": [
                "attribute",
                "attribute_id",
                "id",
                "position_id",
                "value"
            ],
            "properties": {
                "attribute": {
                    "$ref": "#/definitions/models.Attribute"
                },
                "attribute_id": {
                    "type": "string"
                },
                "id": {
                    "type": "string"
                },
                "position_id": {
                    "type": "string"
                },
                "value": {
                    "type": "string"
                }
            }
        },
        "models.Position": {
            "type": "object",
            "properties": {
                "company_id": {
                    "type": "string"
                },
                "id": {
                    "type": "string"
                },
                "name": {
                    "type": "string"
                },
                "position_attributes": {
                    "type": "array",
                    "items": {
                        "$ref": "#/definitions/models.GetPositionAttribute"
                    }
                },
                "profession_id": {
                    "type": "string"
                }
            }
        },
        "models.PositionAttribute": {
            "type": "object",
            "required": [
                "attribute_id",
                "value"
            ],
            "properties": {
                "attribute_id": {
                    "type": "string"
                },
                "value": {
                    "type": "string"
                }
            }
        },
        "models.Profession": {
            "type": "object",
            "properties": {
                "id": {
                    "type": "string"
                },
                "name": {
                    "type": "string"
                }
            }
        },
        "models.ResponseModel": {
            "type": "object",
            "properties": {
                "code": {
                    "type": "integer"
                },
                "data": {},
                "error": {},
                "message": {
                    "type": "string"
                }
            }
        }
    },
    "securityDefinitions": {
        "ApiKeyAuth": {
            "type": "apiKey",
            "name": "Authorization",
            "in": "header"
        }
    }
}